<svg id="Layer_1" data-name="Layer 1" xmlns="http://www.w3.org/2000/svg" width="8.56in" height="4.16in" viewBox="0 0 616.49 299.68">
  <title>bottom</title>
  <g id="LWPOLYLINE-7">
    <rect x="0.08" y="0.08" width="299.52" height="299.52" style="fill: none;stroke: #ec2527;stroke-linecap: round;stroke-linejoin: round;stroke-width: 0.160898035429778px"/>
  </g>
  <g>
    <path d="M174.37,147.34a27.16,27.16,0,1,0,27.16,27.16A27.16,27.16,0,0,0,174.37,147.34Zm5.19,13.92-5.19-3-14.07,8.12v16.25l14.07,8.12,5.19-3v5.83l-5.19,3-19.12-11V163.47l19.12-11,5.19,3Zm13.92,24.28-8.87,5.13v-5.83l3.83-2.21V166.38l-3.83-2.21v-5.83l8.87,5.13Z" transform="translate(-24.53 -30.27)" style="fill: #010101"/>
    <g>
      <path d="M123.61,126.45V130a1.87,1.87,0,0,1-2.12,2.12h-1.14a.3.3,0,0,1-.34-.34v-7.1a.3.3,0,0,1,.34-.34h1.14A1.87,1.87,0,0,1,123.61,126.45Zm-2.12,5a1.26,1.26,0,0,0,1.42-1.43v-3.55a1.25,1.25,0,0,0-1.42-1.42h-.79v6.4Z" transform="translate(-24.53 -30.27)" style="fill: #010101"/>
      <path d="M128.32,131.12a1.66,1.66,0,0,1-1.69,1.1c-1.16,0-1.74-.71-1.74-2.12v-1.52c0-1.41.58-2.12,1.74-2.12s1.74.71,1.74,2.12v.59a.31.31,0,0,1-.35.35h-2.44v.58c0,1,.35,1.43,1,1.43a1.11,1.11,0,0,0,1.08-.74l.08-.13a.28.28,0,0,1,.2-.07.47.47,0,0,1,.25.1.27.27,0,0,1,.13.23A.37.37,0,0,1,128.32,131.12Zm-.64-2.29v-.35c0-.88-.35-1.33-1.05-1.33s-1,.45-1,1.33v.35Z" transform="translate(-24.53 -30.27)" style="fill: #010101"/>
      <path d="M131.72,130.09a3.71,3.71,0,0,0-.81-.48,6.39,6.39,0,0,1-.83-.47,1.41,1.41,0,0,1-.44-.47,1.39,1.39,0,0,1-.18-.75,1.32,1.32,0,0,1,.46-1.06,1.64,1.64,0,0,1,1.14-.41,1.8,1.8,0,0,1,1.06.29,1.57,1.57,0,0,1,.56.68.38.38,0,0,1,.06.19.31.31,0,0,1-.14.24.47.47,0,0,1-.25.1c-.13,0-.22-.08-.29-.24a.91.91,0,0,0-.38-.42,1.21,1.21,0,0,0-.62-.15,1.07,1.07,0,0,0-.65.2.68.68,0,0,0-.26.58,1,1,0,0,0,.06.36,1,1,0,0,0,.26.29c.15.09.42.25.82.46a7.88,7.88,0,0,1,.83.5,2,2,0,0,1,.44.47,1.4,1.4,0,0,1,.18.76,1.36,1.36,0,0,1-.46,1.06,1.71,1.71,0,0,1-1.19.4,1.9,1.9,0,0,1-1.11-.29,1.5,1.5,0,0,1-.56-.68.35.35,0,0,1-.06-.19.28.28,0,0,1,.14-.23.4.4,0,0,1,.25-.1.33.33,0,0,1,.29.23.91.91,0,0,0,.38.42,1.3,1.3,0,0,0,.67.15,1.11,1.11,0,0,0,.69-.2.66.66,0,0,0,.27-.57,1,1,0,0,0-.07-.36A.87.87,0,0,0,131.72,130.09Z" transform="translate(-24.53 -30.27)" style="fill: #010101"/>
      <path d="M134.83,125a.49.49,0,0,1-.14.34.44.44,0,0,1-.33.13.47.47,0,0,1-.34-.13.49.49,0,0,1-.14-.34.45.45,0,0,1,.14-.33.44.44,0,0,1,.34-.14.42.42,0,0,1,.33.14A.45.45,0,0,1,134.83,125Zm-.47,7.12a.3.3,0,0,1-.34-.34V126.9a.31.31,0,0,1,.34-.35.31.31,0,0,1,.35.35v4.88A.31.31,0,0,1,134.36,132.12Z" transform="translate(-24.53 -30.27)" style="fill: #010101"/>
      <path d="M136.19,128.23a1.48,1.48,0,0,1,1.67-1.68h1.33a.31.31,0,0,1,.35.35v5.77a1.48,1.48,0,0,1-1.68,1.67H137a.3.3,0,0,1-.34-.34.31.31,0,0,1,.34-.35h.84a.87.87,0,0,0,1-1v-.55h-1a1.47,1.47,0,0,1-1.67-1.67Zm.69,0v2.22a.86.86,0,0,0,1,1h1v-4.19h-1A.87.87,0,0,0,136.88,128.23Z" transform="translate(-24.53 -30.27)" style="fill: #010101"/>
      <path d="M141.06,126.55h1.33a1.48,1.48,0,0,1,1.68,1.68v3.55a.3.3,0,0,1-.34.34.31.31,0,0,1-.35-.34v-3.55a.88.88,0,0,0-1-1h-1v4.54a.31.31,0,0,1-.35.34.3.3,0,0,1-.34-.34V126.9A.31.31,0,0,1,141.06,126.55Z" transform="translate(-24.53 -30.27)" style="fill: #010101"/>
      <path d="M148.68,131.12a1.66,1.66,0,0,1-1.69,1.1c-1.16,0-1.74-.71-1.74-2.12v-1.52c0-1.41.58-2.12,1.74-2.12s1.74.71,1.74,2.12v.59a.31.31,0,0,1-.34.35h-2.45v.58c0,1,.35,1.43,1.05,1.43a1.12,1.12,0,0,0,1.09-.74.46.46,0,0,1,.08-.13.27.27,0,0,1,.2-.07.5.5,0,0,1,.25.1.27.27,0,0,1,.13.23A.39.39,0,0,1,148.68,131.12Zm-.64-2.29v-.35c0-.88-.35-1.33-1-1.33s-1.05.45-1.05,1.33v.35Z" transform="translate(-24.53 -30.27)" style="fill: #010101"/>
      <path d="M152.59,124.68a.3.3,0,0,1,.34-.34.31.31,0,0,1,.35.34v7.1a.31.31,0,0,1-.35.34H151.6a1.48,1.48,0,0,1-1.68-1.67v-2.22a1.48,1.48,0,0,1,1.68-1.68h1Zm-1,6.75h1v-4.19h-1a.88.88,0,0,0-1,1v2.22A.87.87,0,0,0,151.6,131.43Z" transform="translate(-24.53 -30.27)" style="fill: #010101"/>
      <path d="M160,124.68a.31.31,0,0,1-.34.35h-.15a.87.87,0,0,0-1,1v.54h1.14a.31.31,0,0,1,.34.35.3.3,0,0,1-.34.34h-1.14v4.54a.3.3,0,0,1-.34.34.31.31,0,0,1-.35-.34v-4.54h-.54a.3.3,0,0,1-.34-.34.31.31,0,0,1,.34-.35h.54V126a1.48,1.48,0,0,1,1.68-1.67h.15A.3.3,0,0,1,160,124.68Z" transform="translate(-24.53 -30.27)" style="fill: #010101"/>
      <path d="M160.81,128.24a1.71,1.71,0,0,1,.52-1.26,1.68,1.68,0,0,1,2.45,0,1.72,1.72,0,0,1,.53,1.26v2.2a1.81,1.81,0,0,1-1.76,1.78,1.67,1.67,0,0,1-1.22-.52,1.71,1.71,0,0,1-.52-1.26Zm.69,2.2a1,1,0,0,0,.33.76,1,1,0,0,0,.73.33,1,1,0,0,0,.74-.33,1,1,0,0,0,.32-.76v-2.2a1.06,1.06,0,0,0-.32-.77,1,1,0,0,0-.74-.33,1,1,0,0,0-.73.33,1,1,0,0,0-.33.77Z" transform="translate(-24.53 -30.27)" style="fill: #010101"/>
      <path d="M168.49,127.53a.23.23,0,0,1-.11.22.45.45,0,0,1-.28.11.28.28,0,0,1-.21-.11.91.91,0,0,1-.1-.16.59.59,0,0,0-.57-.35h-1v4.54a.3.3,0,0,1-.34.34.31.31,0,0,1-.35-.34V126.9a.31.31,0,0,1,.35-.35h1.38a1.19,1.19,0,0,1,.8.23,1.72,1.72,0,0,1,.42.56A.54.54,0,0,1,168.49,127.53Z" transform="translate(-24.53 -30.27)" style="fill: #010101"/>
      <path d="M175,131.89,174,129h-.89v2.76a.3.3,0,0,1-.34.34.31.31,0,0,1-.35-.34v-7.1a.31.31,0,0,1,.35-.34h1.1c1.27,0,1.9.78,1.9,2.34a2.16,2.16,0,0,1-1.08,2.2l1,2.76a.61.61,0,0,1,0,.17.25.25,0,0,1-.13.23.56.56,0,0,1-.27.08A.31.31,0,0,1,175,131.89Zm0-5.21c0-1.1-.4-1.65-1.21-1.65h-.76v3.3h.76C174.64,128.33,175,127.78,175,126.68Z" transform="translate(-24.53 -30.27)" style="fill: #010101"/>
      <path d="M177.6,124.68v1.87h1a1.48,1.48,0,0,1,1.68,1.68v3.55a.31.31,0,0,1-.35.34.3.3,0,0,1-.34-.34v-3.55a.88.88,0,0,0-1-1h-1v4.54a.3.3,0,0,1-.34.34.31.31,0,0,1-.35-.34v-7.1a.31.31,0,0,1,.35-.34A.3.3,0,0,1,177.6,124.68Z" transform="translate(-24.53 -30.27)" style="fill: #010101"/>
      <path d="M184.43,131.58l-.11.11a1.71,1.71,0,0,1-1.23.53,1.52,1.52,0,0,1-1.17-.52,1.84,1.84,0,0,1-.47-1.26v-2.1a1.84,1.84,0,0,1,.47-1.26,1.53,1.53,0,0,1,1.17-.53h1.41a.31.31,0,0,1,.35.35v3.55a1.23,1.23,0,0,0,.18.76,1.6,1.6,0,0,0,.29.32.41.41,0,0,1,.11.25.31.31,0,0,1-.11.23.32.32,0,0,1-.25.12C184.92,132.13,184.7,131.94,184.43,131.58Zm-.27-4.34H183.1a.9.9,0,0,0-.69.32,1.16,1.16,0,0,0-.27.78v2.1a1.15,1.15,0,0,0,.27.77.9.9,0,0,0,.69.32,1,1,0,0,0,.74-.32,1.06,1.06,0,0,0,.32-.77Z" transform="translate(-24.53 -30.27)" style="fill: #010101"/>
      <path d="M189.85,131.12a1.66,1.66,0,0,1-1.69,1.1c-1.16,0-1.74-.71-1.74-2.12v-1.52c0-1.41.58-2.12,1.74-2.12s1.73.71,1.73,2.12v.59a.31.31,0,0,1-.34.35h-2.44v.58c0,1,.35,1.43,1,1.43a1.11,1.11,0,0,0,1.08-.74l.08-.13a.27.27,0,0,1,.2-.07.47.47,0,0,1,.25.1.27.27,0,0,1,.13.23A.49.49,0,0,1,189.85,131.12Zm-.65-2.29v-.35c0-.88-.35-1.33-1-1.33s-1,.45-1,1.33v.35Z" transform="translate(-24.53 -30.27)" style="fill: #010101"/>
      <path d="M194.61,130.13l-.42,1.74c-.05.17-.14.26-.29.27a.55.55,0,0,1-.29-.08.28.28,0,0,1-.11-.23.3.3,0,0,1,0-.12l1.84-7.19a.33.33,0,0,1,.66,0l1.85,7.19a.74.74,0,0,1,0,.12.26.26,0,0,1-.12.23.54.54,0,0,1-.28.08c-.14,0-.24-.09-.28-.27l-.44-1.74Zm2-.7-.89-3.48-.89,3.48Z" transform="translate(-24.53 -30.27)" style="fill: #010101"/>
      <path d="M201.34,124.68a.3.3,0,0,1,.34-.34.31.31,0,0,1,.35.34v7.1a.31.31,0,0,1-.35.34h-1.33a1.47,1.47,0,0,1-1.67-1.67v-2.22a1.48,1.48,0,0,1,1.67-1.68h1Zm-1,6.75h1v-4.19h-1a.87.87,0,0,0-1,1v2.22A.86.86,0,0,0,200.35,131.43Z" transform="translate(-24.53 -30.27)" style="fill: #010101"/>
      <path d="M206.29,131.58l-.11.11a1.71,1.71,0,0,1-1.23.53,1.52,1.52,0,0,1-1.17-.52,1.84,1.84,0,0,1-.47-1.26v-2.1a1.84,1.84,0,0,1,.47-1.26,1.53,1.53,0,0,1,1.17-.53h1.41a.31.31,0,0,1,.35.35v3.55a1.23,1.23,0,0,0,.18.76,1.6,1.6,0,0,0,.29.32.41.41,0,0,1,.11.25.31.31,0,0,1-.11.23.32.32,0,0,1-.25.12C206.78,132.13,206.56,131.94,206.29,131.58Zm-.27-4.34H205a.9.9,0,0,0-.69.32,1.16,1.16,0,0,0-.27.78v2.1a1.15,1.15,0,0,0,.27.77.9.9,0,0,0,.69.32,1,1,0,0,0,.74-.32,1.06,1.06,0,0,0,.32-.77Z" transform="translate(-24.53 -30.27)" style="fill: #010101"/>
      <path d="M208.62,126.55H211c1.21,0,1.82.56,1.82,1.68v3.55a.31.31,0,0,1-.35.34.3.3,0,0,1-.34-.34v-3.55q0-1-1.23-1v4.54a.31.31,0,0,1-.35.34.3.3,0,0,1-.34-.34v-4.54H209v4.54a.31.31,0,0,1-.35.34.3.3,0,0,1-.34-.34V126.9A.31.31,0,0,1,208.62,126.55Z" transform="translate(-24.53 -30.27)" style="fill: #010101"/>
      <path d="M216.15,130.09a3.59,3.59,0,0,0-.8-.48,6.66,6.66,0,0,1-.84-.47,1.65,1.65,0,0,1-.44-.47,1.39,1.39,0,0,1-.18-.75,1.35,1.35,0,0,1,.46-1.06,1.64,1.64,0,0,1,1.14-.41,1.8,1.8,0,0,1,1.06.29,1.5,1.5,0,0,1,.56.68.38.38,0,0,1,.06.19.3.3,0,0,1-.13.24.53.53,0,0,1-.26.1c-.12,0-.22-.08-.28-.24a.93.93,0,0,0-.39-.42,1.21,1.21,0,0,0-.62-.15,1,1,0,0,0-.64.2.67.67,0,0,0-.27.58.8.8,0,0,0,.07.36.84.84,0,0,0,.26.29c.15.09.42.25.81.46a7.88,7.88,0,0,1,.83.5,1.79,1.79,0,0,1,.44.47,1.4,1.4,0,0,1,.18.76,1.33,1.33,0,0,1-.46,1.06,1.71,1.71,0,0,1-1.19.4,1.9,1.9,0,0,1-1.11-.29,1.64,1.64,0,0,1-.56-.68.35.35,0,0,1-.06-.19.28.28,0,0,1,.14-.23.42.42,0,0,1,.25-.1c.13,0,.22.08.29.23a.91.91,0,0,0,.38.42,1.33,1.33,0,0,0,.67.15,1.16,1.16,0,0,0,.7-.2.68.68,0,0,0,.26-.57,1,1,0,0,0-.06-.36A1,1,0,0,0,216.15,130.09Z" transform="translate(-24.53 -30.27)" style="fill: #010101"/>
      <path d="M221.65,126.55h1a1.48,1.48,0,0,1,1.67,1.68v2.22a1.48,1.48,0,0,1-1.67,1.67H221.3a.3.3,0,0,1-.34-.34v-7.1a.3.3,0,0,1,.34-.34.31.31,0,0,1,.35.34Zm2,3.9v-2.22a.87.87,0,0,0-1-1h-1v4.19h1A.87.87,0,0,0,223.62,130.45Z" transform="translate(-24.53 -30.27)" style="fill: #010101"/>
      <path d="M227,133.24a1.37,1.37,0,0,1-1.35,1.1.31.31,0,0,1-.34-.35.3.3,0,0,1,.34-.34c.33,0,.58-.22.74-.66l.24-.87-1.4-5.12a.44.44,0,0,1,0-.15.26.26,0,0,1,.12-.22.5.5,0,0,1,.26-.08c.15,0,.24.09.29.26l1.1,4,1.09-4a.48.48,0,0,1,.09-.19.26.26,0,0,1,.2-.08.49.49,0,0,1,.25.08.26.26,0,0,1,.13.23.49.49,0,0,1,0,.12Z" transform="translate(-24.53 -30.27)" style="fill: #010101"/>
    </g>
  </g>
  <g id="LWPOLYLINE-7-2" data-name="LWPOLYLINE-7">
    <rect x="316.89" y="0.08" width="299.52" height="299.52" style="fill: none;stroke: #ec2527;stroke-linecap: round;stroke-linejoin: round;stroke-width: 0.160898035429778px"/>
  </g>
  <g>
    <path d="M114.84,214.86a.5.5,0,0,1-.24.39.84.84,0,0,1-.46.17.44.44,0,0,1-.3-.11.64.64,0,0,1-.18-.26,4.63,4.63,0,0,0-1.07-1.39,2.9,2.9,0,0,0-2-.74,2.86,2.86,0,0,0-2,.77,2.72,2.72,0,0,0-.84,2.09v10.87a2.83,2.83,0,0,0,.84,2.12,2.78,2.78,0,0,0,2,.82,2.63,2.63,0,0,0,2-.7,4.89,4.89,0,0,0,1.07-1.56,1.09,1.09,0,0,1,.2-.29.4.4,0,0,1,.27-.08.8.8,0,0,1,.46.17.46.46,0,0,1,.25.38,3.19,3.19,0,0,1-.46,1.13,5.29,5.29,0,0,1-1.27,1.5,3.86,3.86,0,0,1-2.47.66,4.23,4.23,0,0,1-2.88-1.07,3.86,3.86,0,0,1-1.23-3.08V215.78a3.74,3.74,0,0,1,1.23-3,4.29,4.29,0,0,1,2.88-1,4.44,4.44,0,0,1,2.9,1,4.94,4.94,0,0,1,1.24,1.81A.69.69,0,0,1,114.84,214.86Z" transform="translate(-24.53 -30.27)" style="fill: #231f20"/>
    <path d="M117.26,221.28a4,4,0,0,1,1.2-2.92,3.89,3.89,0,0,1,5.66,0,4,4,0,0,1,1.23,2.92v5.39a4,4,0,0,1-1.23,2.91,3.89,3.89,0,0,1-5.66,0,4,4,0,0,1-1.2-2.91Zm1.2,5.39a2.8,2.8,0,0,0,4.83,2.05,2.77,2.77,0,0,0,.85-2.05v-5.39a2.79,2.79,0,0,0-.85-2.06,2.72,2.72,0,0,0-2-.87,2.69,2.69,0,0,0-2,.87,2.72,2.72,0,0,0-.89,2.06Z" transform="translate(-24.53 -30.27)" style="fill: #231f20"/>
    <path d="M135.13,219.55a.4.4,0,0,1-.17.33.9.9,0,0,1-.54.22.43.43,0,0,1-.35-.19,1.41,1.41,0,0,1-.2-.34,1.67,1.67,0,0,0-1.63-1h-2.78V230a.61.61,0,1,1-1.21,0V218a.53.53,0,0,1,.61-.6h3.38a2.74,2.74,0,0,1,1.83.5,3.57,3.57,0,0,1,1,1.3A.85.85,0,0,1,135.13,219.55Z" transform="translate(-24.53 -30.27)" style="fill: #231f20"/>
    <path d="M139.3,213.34a.92.92,0,0,1-.92.92.86.86,0,0,1-.65-.27.88.88,0,0,1-.27-.65.92.92,0,0,1,.92-.92.88.88,0,0,1,.65.27A.86.86,0,0,1,139.3,213.34Zm-.91,17.22a.53.53,0,0,1-.6-.61V218a.53.53,0,0,1,.6-.6.54.54,0,0,1,.61.6v12A.54.54,0,0,1,138.39,230.56Z" transform="translate(-24.53 -30.27)" style="fill: #231f20"/>
    <path d="M149.71,229.11l-.47.47a3.87,3.87,0,0,1-2.82,1.22,3.5,3.5,0,0,1-2.71-1.22,4.18,4.18,0,0,1-1.09-2.91v-5.15a4.2,4.2,0,0,1,1.09-2.92,3.49,3.49,0,0,1,2.71-1.21h3.45a.54.54,0,0,1,.61.6v8.7a3.29,3.29,0,0,0,.46,2,6.33,6.33,0,0,0,.76.84.71.71,0,0,1,.2.45.59.59,0,0,1-.19.38.58.58,0,0,1-.45.22C151,230.57,150.45,230.08,149.71,229.11Zm-.44-10.52h-2.83a2.41,2.41,0,0,0-1.87.85,3.06,3.06,0,0,0-.74,2.08v5.15a3.08,3.08,0,0,0,.74,2.08,2.4,2.4,0,0,0,1.87.84,2.77,2.77,0,0,0,2-.84,2.86,2.86,0,0,0,.86-2.08Z" transform="translate(-24.53 -30.27)" style="fill: #231f20"/>
    <path d="M154.92,217.39h3.27c2.57,0,3.86,1.28,3.86,3.86V230a.61.61,0,1,1-1.21,0v-8.7a2.35,2.35,0,0,0-2.65-2.66h-2.66V230a.61.61,0,1,1-1.21,0V218A.53.53,0,0,1,154.92,217.39Z" transform="translate(-24.53 -30.27)" style="fill: #231f20"/>
    <path d="M171.48,212.55a.53.53,0,0,1,.6-.6.54.54,0,0,1,.61.6V230a.54.54,0,0,1-.61.61h-3.26q-3.87,0-3.87-3.87v-5.44c0-2.58,1.29-3.86,3.87-3.86h2.66Zm-2.66,16.8h2.66V218.59h-2.66a2.35,2.35,0,0,0-2.66,2.66v5.44A2.35,2.35,0,0,0,168.82,229.35Z" transform="translate(-24.53 -30.27)" style="fill: #231f20"/>
    <path d="M183.78,228.24a3.85,3.85,0,0,1-3.93,2.56q-4,0-4-5v-3.72q0-5,4-5c2.68,0,4,1.65,4,5v1.45a.54.54,0,0,1-.61.61H177v1.66c0,2.5.93,3.75,2.81,3.75a2.93,2.93,0,0,0,2.88-2,1.5,1.5,0,0,1,.15-.23.41.41,0,0,1,.32-.11.82.82,0,0,1,.45.17.49.49,0,0,1,.25.4A.76.76,0,0,1,183.78,228.24ZM182.67,223v-1.09c0-2.34-.94-3.5-2.82-3.5s-2.81,1.16-2.81,3.5V223Z" transform="translate(-24.53 -30.27)" style="fill: #231f20"/>
    <path d="M193.68,219.55a.4.4,0,0,1-.17.33.93.93,0,0,1-.55.22.45.45,0,0,1-.35-.19,1.49,1.49,0,0,1-.19-.34,1.68,1.68,0,0,0-1.63-1H188V230a.61.61,0,1,1-1.21,0V218a.53.53,0,0,1,.6-.6h3.39a2.74,2.74,0,0,1,1.83.5,3.57,3.57,0,0,1,.95,1.3A.85.85,0,0,1,193.68,219.55Z" transform="translate(-24.53 -30.27)" style="fill: #231f20"/>
    <path d="M206.29,222.94h-1.87v7a.61.61,0,1,1-1.21,0v-17.4a.53.53,0,0,1,.6-.6h2.48q4.41,0,4.41,5.5T206.29,222.94Zm3.2-5.49c0-2.86-1.06-4.29-3.2-4.29h-1.87v8.58h1.87C208.43,221.74,209.49,220.31,209.49,217.45Z" transform="translate(-24.53 -30.27)" style="fill: #231f20"/>
    <path d="M215.35,213.34a.87.87,0,0,1-.26.65.93.93,0,0,1-1.31,0,.91.91,0,0,1-.26-.65.92.92,0,0,1,1.57-.65A.85.85,0,0,1,215.35,213.34Zm-.9,17.22a.54.54,0,0,1-.61-.61V218a.54.54,0,0,1,.61-.6.53.53,0,0,1,.6.6v12A.53.53,0,0,1,214.45,230.56Z" transform="translate(-24.53 -30.27)" style="fill: #231f20"/>
    <path d="M219.28,217.39h3.26c2.58,0,3.87,1.28,3.87,3.86V230a.61.61,0,1,1-1.21,0v-8.7a2.35,2.35,0,0,0-2.66-2.66h-2.65V230a.61.61,0,1,1-1.21,0V218A.53.53,0,0,1,219.28,217.39Z" transform="translate(-24.53 -30.27)" style="fill: #231f20"/>
    <path d="M237.26,228.24a3.83,3.83,0,0,1-3.92,2.56q-4,0-4-5v-3.72q0-5,4-5t4,5v1.45a.53.53,0,0,1-.6.61h-6.24v1.66q0,3.75,2.82,3.75a2.92,2.92,0,0,0,2.87-2,1.5,1.5,0,0,1,.15-.23.41.41,0,0,1,.32-.11.87.87,0,0,1,.46.17.5.5,0,0,1,.24.4A.76.76,0,0,1,237.26,228.24ZM236.15,223v-1.09c0-2.34-.94-3.5-2.81-3.5s-2.82,1.16-2.82,3.5V223Z" transform="translate(-24.53 -30.27)" style="fill: #231f20"/>
    <path d="M245.49,225.64a9.43,9.43,0,0,0-2-1.21,13.57,13.57,0,0,1-2-1.14,3.75,3.75,0,0,1-1-1.08,3.19,3.19,0,0,1-.41-1.72,3.06,3.06,0,0,1,1.05-2.43,3.83,3.83,0,0,1,2.63-.92,4.18,4.18,0,0,1,2.47.67,3.59,3.59,0,0,1,1.28,1.57.69.69,0,0,1,.13.36.5.5,0,0,1-.26.4.82.82,0,0,1-.46.18c-.2,0-.36-.14-.48-.43a2.51,2.51,0,0,0-1-1.13,3.26,3.26,0,0,0-1.65-.41,2.76,2.76,0,0,0-1.74.55,1.84,1.84,0,0,0-.73,1.59,2.42,2.42,0,0,0,.18,1,2.14,2.14,0,0,0,.73.81c.37.24,1,.62,2,1.15a15.44,15.44,0,0,1,2,1.22,3.75,3.75,0,0,1,1,1.08,3.22,3.22,0,0,1,.41,1.72,3.06,3.06,0,0,1-1,2.43,4,4,0,0,1-2.75.92,4.34,4.34,0,0,1-2.59-.67,3.5,3.5,0,0,1-1.29-1.57.7.7,0,0,1-.12-.36.52.52,0,0,1,.26-.4.79.79,0,0,1,.45-.18c.21,0,.37.15.49.44a2.5,2.5,0,0,0,1,1.13,3.46,3.46,0,0,0,1.77.4,3,3,0,0,0,1.86-.54,1.88,1.88,0,0,0,.73-1.6,2.45,2.45,0,0,0-.18-1A2.41,2.41,0,0,0,245.49,225.64Z" transform="translate(-24.53 -30.27)" style="fill: #231f20"/>
  </g>
</svg>
