<?xml version="1.0" encoding="utf-8"?>
<!-- Generator: Adobe Illustrator 20.1.0, SVG Export Plug-In . SVG Version: 6.00 Build 0)  -->
<svg version="1.1" id="_x30_" xmlns="http://www.w3.org/2000/svg" xmlns:xlink="http://www.w3.org/1999/xlink" x="0px" y="0px"
	 viewBox="0 0 612 792" style="enable-background:new 0 0 612 792;" xml:space="preserve">
<style type="text/css">
	.st0{fill:none;stroke:#000000;stroke-width:0.7087;stroke-linecap:round;stroke-linejoin:round;stroke-miterlimit:10;}
	.st1{fill:none;stroke:#000000;stroke-width:0.7779;stroke-linecap:round;stroke-linejoin:round;stroke-miterlimit:10;}
</style>
<g id="CIRCLE">
	<path class="st0" d="M276.8,443.4c0-2.2,1.8-4,4-4s4,1.8,4,4s-1.8,4-4,4S276.8,445.6,276.8,443.4L276.8,443.4z"/>
</g>
<g id="CIRCLE_1_">
	<path class="st0" d="M276.8,367.8c0-2.2,1.8-4,4-4s4,1.8,4,4s-1.8,4-4,4S276.8,370,276.8,367.8L276.8,367.8z"/>
</g>
<g id="CIRCLE_2_">
	<path class="st0" d="M276.8,292.2c0-2.2,1.8-4,4-4s4,1.8,4,4s-1.8,4-4,4S276.8,294.4,276.8,292.2L276.8,292.2z"/>
</g>
<g id="CIRCLE_3_">
	<path class="st0" d="M276.8,241.8c0-2.2,1.8-4,4-4s4,1.8,4,4s-1.8,4-4,4S276.8,244,276.8,241.8L276.8,241.8z"/>
</g>
<g id="CIRCLE_4_">
	<path class="st0" d="M327.2,443.4c0-2.2,1.8-4,4-4s4,1.8,4,4s-1.8,4-4,4S327.2,445.6,327.2,443.4L327.2,443.4z"/>
</g>
<g id="CIRCLE_5_">
	<path class="st0" d="M327.2,292.2c0-2.2,1.8-4,4-4s4,1.8,4,4s-1.8,4-4,4S327.2,294.4,327.2,292.2L327.2,292.2z"/>
</g>
<g id="CIRCLE_6_">
	<path class="st0" d="M327.2,241.8c0-2.2,1.8-4,4-4s4,1.8,4,4s-1.8,4-4,4S327.2,244,327.2,241.8L327.2,241.8z"/>
</g>
<g id="CIRCLE_7_">
	<path class="st0" d="M276.8,166.2c0-2.2,1.8-4,4-4s4,1.8,4,4s-1.8,4-4,4S276.8,168.4,276.8,166.2L276.8,166.2z"/>
</g>
<g id="CIRCLE_8_">
	<path class="st0" d="M276.8,90.6c0-2.2,1.8-4,4-4s4,1.8,4,4s-1.8,4-4,4S276.8,92.8,276.8,90.6L276.8,90.6z"/>
</g>
<g id="CIRCLE_9_">
	<path class="st0" d="M327.2,166.2c0-2.2,1.8-4,4-4s4,1.8,4,4s-1.8,4-4,4S327.2,168.4,327.2,166.2L327.2,166.2z"/>
</g>
<g id="CIRCLE_10_">
	<path class="st0" d="M327.2,90.6c0-2.2,1.8-4,4-4s4,1.8,4,4s-1.8,4-4,4S327.2,92.8,327.2,90.6L327.2,90.6z"/>
</g>
<g id="CIRCLE_11_">
	<path class="st0" d="M327.2,367.8c0-2.2,1.8-4,4-4s4,1.8,4,4s-1.8,4-4,4S327.2,370,327.2,367.8L327.2,367.8z"/>
</g>
<g id="LWPOLYLINE">
	<rect x="266.4" y="47.4" class="st1" width="79.2" height="529.2"/>
</g>
<g id="CIRCLE_12_">
	<path class="st0" d="M302,504.6c0-2.2,1.8-4,4-4s4,1.8,4,4s-1.8,4-4,4S302,506.8,302,504.6L302,504.6z"/>
</g>
<g id="CIRCLE_13_">
	<path class="st0" d="M302,558.6c0-2.2,1.8-4,4-4s4,1.8,4,4s-1.8,4-4,4S302,560.8,302,558.6L302,558.6z"/>
</g>
</svg>
