<?xml version="1.0" encoding="utf-8"?>
<!-- Generator: Adobe Illustrator 20.1.0, SVG Export Plug-In . SVG Version: 6.00 Build 0)  -->
<svg version="1.1" id="Layer_1" xmlns="http://www.w3.org/2000/svg" xmlns:xlink="http://www.w3.org/1999/xlink" x="0px" y="0px"
	 viewBox="0 0 2160 864" style="enable-background:new 0 0 2160 864;" xml:space="preserve">
<style type="text/css">
	.st0{fill:none;stroke:#000000;stroke-width:0.7087;stroke-linecap:round;stroke-linejoin:round;stroke-miterlimit:10;}
</style>
<g>
	<g id="LWPOLYLINE_2_">
		<rect x="52.3" y="55.6" class="st0" width="227.5" height="429.1"/>
	</g>
	<g id="LWPOLYLINE_1_">
		<rect x="16.3" y="19.6" class="st0" width="299.5" height="723.1"/>
	</g>
</g>
<g>
	<g id="LWPOLYLINE_3_">
		<rect x="347.4" y="19.6" class="st0" width="299.5" height="723.1"/>
	</g>
	<rect x="396.3" y="68.6" class="st0" width="201.6" height="403.2"/>
</g>
<g id="LWPOLYLINE_4_">
	<rect x="665.6" y="19.6" class="st0" width="299.5" height="723.1"/>
</g>
</svg>
